<svg width="24" height="25" viewBox="0 0 24 25" fill="none" xmlns="http://www.w3.org/2000/svg">
<path d="M12 9.82957C11.5095 9.82957 11.03 9.97502 10.6222 10.2475C10.2144 10.52 9.89648 10.9074 9.70878 11.3605C9.52107 11.8137 9.47196 12.3123 9.56765 12.7934C9.66334 13.2745 9.89954 13.7164 10.2464 14.0632C10.5932 14.41 11.0351 14.6462 11.5162 14.7419C11.9972 14.8376 12.4959 14.7885 12.9491 14.6008C13.4022 14.4131 13.7895 14.0952 14.062 13.6874C14.3346 13.2796 14.48 12.8001 14.48 12.3096C14.48 11.9839 14.4159 11.6614 14.2912 11.3605C14.1666 11.0596 13.9839 10.7862 13.7536 10.5559C13.5233 10.3257 13.2499 10.143 12.9491 10.0183C12.6482 9.89372 12.3257 9.82957 12 9.82957ZM21.93 7.37957C21.9247 6.60733 21.7825 5.84214 21.51 5.11957C21.3093 4.59083 20.9987 4.11066 20.5988 3.71076C20.1989 3.31085 19.7187 3.00029 19.19 2.79957C18.4674 2.52703 17.7022 2.38483 16.93 2.37957C15.64 2.30957 15.26 2.30957 12 2.30957C8.74 2.30957 8.36 2.30957 7.07 2.37957C6.29776 2.38483 5.53257 2.52703 4.81 2.79957C4.28126 3.00029 3.80109 3.31085 3.40119 3.71076C3.00128 4.11066 2.69072 4.59083 2.49 5.11957C2.21746 5.84214 2.07526 6.60733 2.07 7.37957C2 8.66957 2 9.04957 2 12.3096C2 15.5696 2 15.9496 2.07 17.2396C2.08076 18.0145 2.22277 18.7821 2.49 19.5096C2.68983 20.0359 3.00013 20.5133 3.4 20.9096C3.79819 21.3119 4.27939 21.6224 4.81 21.8196C5.53257 22.0921 6.29776 22.2343 7.07 22.2396C8.36 22.3096 8.74 22.3096 12 22.3096C15.26 22.3096 15.64 22.3096 16.93 22.2396C17.7022 22.2343 18.4674 22.0921 19.19 21.8196C19.7206 21.6224 20.2018 21.3119 20.6 20.9096C20.9999 20.5133 21.3102 20.0359 21.51 19.5096C21.7823 18.7835 21.9244 18.015 21.93 17.2396C22 15.9496 22 15.5696 22 12.3096C22 9.04957 22 8.66957 21.93 7.37957ZM19.39 15.3796C19.3579 15.9967 19.2262 16.6045 19 17.1796C18.8059 17.6593 18.5173 18.095 18.1514 18.4609C17.7854 18.8268 17.3497 19.1154 16.87 19.3096C16.2895 19.5232 15.6783 19.6414 15.06 19.6596C14.27 19.6596 14.06 19.6596 12 19.6596C9.94 19.6596 9.73 19.6596 8.94 19.6596C8.32173 19.6414 7.71049 19.5232 7.13 19.3096C6.6341 19.1253 6.18628 18.8313 5.82 18.4496C5.45767 18.0908 5.17784 17.6574 5 17.1796C4.78556 16.5997 4.67061 15.9877 4.66 15.3696C4.66 14.5796 4.66 14.3696 4.66 12.3096C4.66 10.2496 4.66 10.0396 4.66 9.24957C4.67061 8.6314 4.78556 8.01945 5 7.43957C5.18428 6.94367 5.47827 6.49585 5.86 6.12957C6.22033 5.76919 6.65326 5.48966 7.13 5.30957C7.71049 5.09598 8.32173 4.97778 8.94 4.95957C9.73 4.95957 9.94 4.95957 12 4.95957C14.06 4.95957 14.27 4.95957 15.06 4.95957C15.6783 4.97778 16.2895 5.09598 16.87 5.30957C17.3659 5.49385 17.8137 5.78784 18.18 6.16957C18.5423 6.52832 18.8222 6.9617 19 7.43957C19.2136 8.02006 19.3318 8.6313 19.35 9.24957C19.35 10.0396 19.35 10.2496 19.35 12.3096C19.35 14.3696 19.42 14.5796 19.39 15.3696V15.3796ZM17.79 7.93957C17.6709 7.61655 17.4832 7.32321 17.2398 7.07978C16.9964 6.83635 16.703 6.64863 16.38 6.52957C15.9365 6.37583 15.4693 6.30136 15 6.30957C14.22 6.30957 14 6.30957 12 6.30957C10 6.30957 9.78 6.30957 9 6.30957C8.52827 6.31418 8.06107 6.4022 7.62 6.56957C7.30193 6.68323 7.01169 6.86328 6.76858 7.09777C6.52547 7.33226 6.33506 7.61581 6.21 7.92957C6.06478 8.37494 5.99383 8.84117 6 9.30957C6 10.0896 6 10.3096 6 12.3096C6 14.3096 6 14.5296 6 15.3096C6.00991 15.7808 6.09777 16.2471 6.26 16.6896C6.37906 17.0126 6.56678 17.3059 6.81021 17.5494C7.05364 17.7928 7.34698 17.9805 7.67 18.0996C8.09667 18.2565 8.54565 18.3443 9 18.3596C9.78 18.3596 10 18.3596 12 18.3596C14 18.3596 14.22 18.3596 15 18.3596C15.4717 18.355 15.9389 18.2669 16.38 18.0996C16.703 17.9805 16.9964 17.7928 17.2398 17.5494C17.4832 17.3059 17.6709 17.0126 17.79 16.6896C17.9574 16.2485 18.0454 15.7813 18.05 15.3096C18.05 14.5296 18.05 14.3096 18.05 12.3096C18.05 10.3096 18.05 10.0896 18.05 9.30957C18.0503 8.83737 17.9621 8.36929 17.79 7.92957V7.93957ZM12 16.1296C11.4988 16.1296 11.0026 16.0307 10.5397 15.8386C10.0768 15.6465 9.6563 15.365 9.30238 15.0101C8.94846 14.6553 8.66803 14.2341 8.47714 13.7707C8.28626 13.3073 8.18868 12.8107 8.19 12.3096C8.19 11.5536 8.4143 10.8147 8.83449 10.1863C9.25468 9.55785 9.85187 9.06823 10.5505 8.7794C11.2491 8.49057 12.0177 8.41551 12.7589 8.56372C13.5002 8.71193 14.1808 9.07674 14.7147 9.61198C15.2485 10.1472 15.6116 10.8288 15.7578 11.5705C15.9041 12.3121 15.827 13.0805 15.5363 13.7784C15.2457 14.4762 14.7545 15.0721 14.125 15.4907C13.4955 15.9092 12.7559 16.1315 12 16.1296ZM16 9.23957C15.7789 9.21617 15.5744 9.11179 15.4257 8.94654C15.277 8.78129 15.1947 8.56686 15.1947 8.34457C15.1947 8.12228 15.277 7.90785 15.4257 7.7426C15.5744 7.57735 15.7789 7.47297 16 7.44957C16.2211 7.47297 16.4256 7.57735 16.5743 7.7426C16.723 7.90785 16.8053 8.12228 16.8053 8.34457C16.8053 8.56686 16.723 8.78129 16.5743 8.94654C16.4256 9.11179 16.2211 9.21617 16 9.23957Z" fill="white"/>
</svg>
