<svg width="24" height="25" viewBox="0 0 24 25" fill="none" xmlns="http://www.w3.org/2000/svg">
<g clip-path="url(#clip0_1450_257)">
<path d="M17.4984 14.8811C17.2006 14.7322 15.7319 14.0121 15.4582 13.9137C15.1845 13.814 14.9855 13.7648 14.7866 14.0625C14.5876 14.359 14.0149 15.0299 13.84 15.228C13.6664 15.426 13.4916 15.45 13.1937 15.3012C12.3136 14.9524 11.5012 14.4536 10.793 13.8272C10.1399 13.2263 9.5799 12.5322 9.13143 11.7676C8.9578 11.4699 9.11334 11.3091 9.26286 11.1615C9.3967 11.0282 9.5619 10.8146 9.71021 10.6406C9.83305 10.4903 9.93374 10.3234 10.0092 10.1448C10.049 10.0628 10.0675 9.97216 10.0631 9.88118C10.0586 9.79021 10.0314 9.70178 9.98392 9.62393C9.90916 9.4751 9.3123 8.01198 9.06391 7.41665C8.82154 6.83812 8.57556 6.91614 8.39108 6.90653C8.21744 6.89813 8.01849 6.89573 7.81953 6.89573C7.66819 6.89993 7.51936 6.93526 7.3824 6.99951C7.24544 7.06375 7.12331 7.15551 7.02371 7.26901C6.68612 7.58725 6.41882 7.97198 6.23883 8.39871C6.05884 8.82544 5.97011 9.28481 5.9783 9.74756C6.07512 10.8689 6.49881 11.9377 7.19735 12.8226C8.4778 14.7335 10.2355 16.2801 12.2978 17.3104C12.8541 17.5483 13.4224 17.7574 14.0004 17.9369C14.6097 18.1211 15.2539 18.161 15.8814 18.0534C16.2971 17.9696 16.6907 17.8008 17.0375 17.5579C17.3843 17.3149 17.6767 17.003 17.8963 16.6419C18.0922 16.1977 18.1526 15.706 18.0699 15.228C17.9964 15.1031 17.7974 15.0299 17.4984 14.8811ZM20.5032 3.98389C18.4533 1.94387 15.7285 0.71487 12.8361 0.525703C9.94367 0.336536 7.08075 1.20009 4.78033 2.9556C2.4799 4.71111 0.898744 7.23894 0.331222 10.0685C-0.236299 12.898 0.248491 15.8364 1.69534 18.3366L0 24.5L6.33521 22.8472C8.08741 23.7969 10.0507 24.2946 12.0458 24.2947H12.0506C14.4141 24.2935 16.7242 23.5951 18.689 22.2875C20.6538 20.98 22.1853 19.1221 23.0898 16.9486C23.9943 14.7751 24.2314 12.3835 23.771 10.0759C23.3106 7.76836 22.1735 5.6484 20.5032 3.98388V3.98389ZM17.3284 20.7744C15.7466 21.7613 13.9175 22.285 12.0506 22.2855H12.0458C10.2672 22.2854 8.52129 21.809 6.99116 20.9064L6.62822 20.6927L2.86857 21.6746L3.87178 18.0258L3.63666 17.6513C2.5931 15.9947 2.06646 14.0673 2.12332 12.1129C2.18018 10.1584 2.81799 8.26455 3.95609 6.67089C5.0942 5.07722 6.6815 3.85528 8.51726 3.15957C10.353 2.46387 12.3548 2.32564 14.2695 2.76238C16.1842 3.19912 17.9257 4.19121 19.274 5.61319C20.6223 7.03517 21.5167 8.82319 21.8441 10.7511C22.1715 12.6791 21.9172 14.6604 21.1134 16.4445C20.3097 18.2286 18.9924 19.7354 17.3284 20.7744Z" fill="white"/>
</g>
<defs>
<clipPath id="clip0_1450_257">
<rect width="24" height="24" fill="white" transform="translate(0 0.5)"/>
</clipPath>
</defs>
</svg>
